R Club - Lesson 7
…
set.seed(3094)
```

---

## サンプルデータ

```r
sim1
```

```
## # A tibble: 30 x 3
##        x     y    resid
##    <int> <dbl>    <dbl>
##  1     1  4.20 -2.07   
##  2     1  7.51  1.24   
##  3     1  2.13 -4.15   
##  4     2  8.99  0.665  
##  5     2 10.2   1.92   
##  6     2 11.3   2.97   
##  7     3  7.36 -3.02   
##  8     3 10.5   0.130  
##  9     3 10.5   0.136  
## 10     4 12.4   0.00763
## # ... with 20 more rows
```
…
- トレーニング用のデータをいじくりまわして仮説を立てる
- 検証用のデータを使って仮説を検証する

---

## `resample_partition()`

```r
ex <- resample_partition(sim1, c(test = 0.3, train = 0.7))
as_data_frame(ex$train)
```

```
## # A tibble: 22 x 3
##        x     y    resid
##    <int> <dbl>    <dbl>
##  1     1  4.20 -2.07   
##  2     1  7.51  1.24   
##  3     1  2.13 -4.15   
##  4     2  8.99  0.665  
##  5     2 10.2   1.92   
##  6     2 11.3   2.97   
##  7     3  7.36 -3.02   
##  8     3 10.5   0.130  
##  9     3 10.5   0.136  
## 10     4 12.4   0.00763
## # ... with 12 more rows
```
…
<img src="slides_files/figure-html/unnamed-chunk-12-1.png" height="350" style="display: block; margin: auto;" />

---

## 残差

```r
sim1 <- sim1 %>% 
  add_residuals(sim1_mod)
sim1
```

```
## # A tibble: 30 x 3
##        x     y    resid
##    <int> <dbl>    <dbl>
##  1     1  4.20 -2.07   
##  2     1  7.51  1.24   
##  3     1  2.13 -4.15   
##  4     2  8.99  0.665  
##  5     2 10.2   1.92   
##  6     2 11.3   2.97   
##  7     3  7.36 -3.02   
##  8     3 10.5   0.130  
##  9     3 10.5   0.136  
## 10     4 12.4   0.00763
## # ... with 20 more rows
```
…
---

## `gather_predictions()`

```r
qsim_pred <- qsim %>% 
  data_grid(x) %>% 
  gather_predictions(mod_lin, mod_quad)
qsim_pred
```

```
## # A tibble: 40 x 3
##    model        x   pred
##    <chr>    <dbl>  <dbl>
##  1 mod_lin -2.83  -4.75 
##  2 mod_lin -2.16  -2.71 
##  3 mod_lin -2.14  -2.67 
##  4 mod_lin -1.88  -1.89 
##  5 mod_lin -1.65  -1.19 
##  6 mod_lin -1.48  -0.674
##  7 mod_lin -1.16   0.291
##  8 mod_lin -0.681  1.72 
##  9 mod_lin -0.636  1.86 
## 10 mod_lin -0.405  2.55 
## # ... with 30 more rows
```
…
<img src="slides_files/figure-html/unnamed-chunk-20-1.png" height="350" style="display: block; margin: auto;" />

---

## `gather_residuals()`

```r
qsim_resid <- qsim %>% 
  gather_residuals(mod_lin, mod_quad)
qsim_resid
```

```
## # A tibble: 40 x 4
##    model        x       y  resid
##    <chr>    <dbl>   <dbl>  <dbl>
##  1 mod_lin  0.163   3.80  -0.461
##  2 mod_lin -2.14   -4.45  -1.78 
##  3 mod_lin -0.681  -1.48  -3.20 
##  4 mod_lin -1.65   -2.53  -1.35 
##  5 mod_lin -2.83   -0.153  4.60 
##  6 mod_lin -0.405  -1.82  -4.37 
##  7 mod_lin  1.84   13.4    4.11 
##  8 mod_lin  1.85   11.9    2.52 
##  9 mod_lin -0.636   2.73   0.872
## 10 mod_lin -2.16    0.350  3.06 
## # ... with 30 more rows
```
…
