R Club - Lesson 3
…
.right-column[

```r
pwt90 %>% 
  select(country, year, rgdpo)
```

```
## # A tibble: 11,830 x 3
##    country  year rgdpo
##    <chr>   <dbl> <dbl>
##  1 Aruba    1950    NA
##  2 Aruba    1951    NA
##  3 Aruba    1952    NA
##  4 Aruba    1953    NA
##  5 Aruba    1954    NA
##  6 Aruba    1955    NA
##  7 Aruba    1956    NA
##  8 Aruba    1957    NA
##  9 Aruba    1958    NA
## 10 Aruba    1959    NA
## # ... with 11,820 more rows
```
…
.right-column[

```r
pwt90 %>% 
  filter(country == "Japan")
```

```
## # A tibble: 65 x 47
##    countrycode country currency_unit  year
##    <chr>       <chr>   <chr>         <dbl>
##  1 JPN         Japan   Yen            1950
##  2 JPN         Japan   Yen            1951
##  3 JPN         Japan   Yen            1952
##  4 JPN         Japan   Yen            1953
##  5 JPN         Japan   Yen            1954
##  6 JPN         Japan   Yen            1955
##  7 JPN         Japan   Yen            1956
##  8 JPN         Japan   Yen            1957
##  9 JPN         Japan   Yen            1958
## 10 JPN         Japan   Yen            1959
## # ... with 55 more rows, and 43 more
## #   variables: rgdpe <dbl>, rgdpo <dbl>,
## #   pop <dbl>, emp <dbl>, avh <dbl>,
## #   hc <dbl>, ccon <dbl>, cda <dbl>,
## #   cgdpe <dbl>, cgdpo <dbl>, ck <dbl>,
## #   ctfp <dbl>, cwtfp <dbl>,
## #   rgdpna <dbl>, rconna <dbl>,
## #   rdana <dbl>, rkna <dbl>,
## #   rtfpna <dbl>, rwtfpna <dbl>,
…
.right-column[

```r
pwt90 %>% 
  mutate(rgdpo_pc = rgdpo / pop)
```

```
## # A tibble: 11,830 x 48
##    countrycode country currency_unit  year
##    <chr>       <chr>   <chr>         <dbl>
##  1 ABW         Aruba   Aruban Guild…  1950
##  2 ABW         Aruba   Aruban Guild…  1951
##  3 ABW         Aruba   Aruban Guild…  1952
##  4 ABW         Aruba   Aruban Guild…  1953
##  5 ABW         Aruba   Aruban Guild…  1954
##  6 ABW         Aruba   Aruban Guild…  1955
##  7 ABW         Aruba   Aruban Guild…  1956
##  8 ABW         Aruba   Aruban Guild…  1957
##  9 ABW         Aruba   Aruban Guild…  1958
## 10 ABW         Aruba   Aruban Guild…  1959
## # ... with 11,820 more rows, and 44 more
## #   variables: rgdpe <dbl>, rgdpo <dbl>,
## #   pop <dbl>, emp <dbl>, avh <dbl>,
## #   hc <dbl>, ccon <dbl>, cda <dbl>,
## #   cgdpe <dbl>, cgdpo <dbl>, ck <dbl>,
## #   ctfp <dbl>, cwtfp <dbl>,
## #   rgdpna <dbl>, rconna <dbl>,
## #   rdana <dbl>, rkna <dbl>,
## #   rtfpna <dbl>, rwtfpna <dbl>,
…
.right-column[

```r
pwt90 %>% 
  transmute(country, year, 
            rgdpo_pc = rgdpo / pop)
```

```
## # A tibble: 11,830 x 3
##    country  year rgdpo_pc
##    <chr>   <dbl>    <dbl>
##  1 Aruba    1950       NA
##  2 Aruba    1951       NA
##  3 Aruba    1952       NA
##  4 Aruba    1953       NA
##  5 Aruba    1954       NA
##  6 Aruba    1955       NA
##  7 Aruba    1956       NA
##  8 Aruba    1957       NA
##  9 Aruba    1958       NA
## 10 Aruba    1959       NA
## # ... with 11,820 more rows
```
…
